<?xml version="1.0" encoding="UTF-8" standalone="no"?>
<!-- Created with Inkscape (http://www.inkscape.org/) -->

<svg
   xmlns:dc="http://purl.org/dc/elements/1.1/"
   xmlns:cc="http://creativecommons.org/ns#"
   xmlns:rdf="http://www.w3.org/1999/02/22-rdf-syntax-ns#"
   xmlns:svg="http://www.w3.org/2000/svg"
   xmlns="http://www.w3.org/2000/svg"
   xmlns:sodipodi="http://sodipodi.sourceforge.net/DTD/sodipodi-0.dtd"
   xmlns:inkscape="http://www.inkscape.org/namespaces/inkscape"
   width="132.99722mm"
   height="64.205574mm"
   viewBox="0 0 132.99723 64.205576"
   version="1.1"
   id="svg8"
   inkscape:version="0.92.2 5c3e80d, 2017-08-06"
   sodipodi:docname="mtilde_table_solution.svg">
  <defs
     id="defs2">
    <marker
       inkscape:isstock="true"
       style="overflow:visible;"
       id="marker3469"
       refX="0.0"
       refY="0.0"
       orient="auto"
       inkscape:stockid="Arrow2Mend">
      <path
         transform="scale(0.6) rotate(180) translate(0,0)"
         d="M 8.7185878,4.0337352 L -2.2072895,0.016013256 L 8.7185884,-4.0017078 C 6.9730900,-1.6296469 6.9831476,1.6157441 8.7185878,4.0337352 z "
         style="fill-rule:evenodd;stroke-width:0.625;stroke-linejoin:round;stroke:#0000d8;stroke-opacity:1;fill:#0000d8;fill-opacity:1"
         id="path3467" />
    </marker>
    <marker
       inkscape:stockid="Arrow2Mend"
       orient="auto"
       refY="0"
       refX="0"
       id="marker1685"
       style="overflow:visible"
       inkscape:isstock="true">
      <path
         id="path1683"
         style="fill:#0000ff;fill-opacity:1;fill-rule:evenodd;stroke:#0000ff;stroke-width:0.625;stroke-linejoin:round;stroke-opacity:1"
         d="M 8.7185878,4.0337352 -2.2072895,0.01601326 8.7185884,-4.0017078 c -1.7454984,2.3720609 -1.7354408,5.6174519 -6e-7,8.035443 z"
         transform="scale(-0.6)"
         inkscape:connector-curvature="0" />
    </marker>
    <marker
       inkscape:isstock="true"
       style="overflow:visible"
       id="marker1493"
       refX="0"
       refY="0"
       orient="auto"
       inkscape:stockid="Arrow2Mend">
      <path
         transform="scale(-0.6)"
         d="M 8.7185878,4.0337352 -2.2072895,0.01601326 8.7185884,-4.0017078 c -1.7454984,2.3720609 -1.7354408,5.6174519 -6e-7,8.035443 z"
         style="fill:#0000ff;fill-opacity:1;fill-rule:evenodd;stroke:#0000ff;stroke-width:0.625;stroke-linejoin:round;stroke-opacity:1"
         id="path1491"
         inkscape:connector-curvature="0" />
    </marker>
  </defs>
  <sodipodi:namedview
     id="base"
     pagecolor="#ffffff"
     bordercolor="#666666"
     borderopacity="1.0"
     inkscape:pageopacity="0.0"
     inkscape:pageshadow="2"
     inkscape:zoom="1.1214272"
     inkscape:cx="282.57208"
     inkscape:cy="111.89385"
     inkscape:document-units="mm"
     inkscape:current-layer="layer1"
     showgrid="true"
     inkscape:snap-global="true"
     showguides="false"
     fit-margin-top="0"
     fit-margin-left="0"
     fit-margin-right="0"
     fit-margin-bottom="0"
     inkscape:window-width="1240"
     inkscape:window-height="755"
     inkscape:window-x="416"
     inkscape:window-y="0"
     inkscape:window-maximized="0"
     inkscape:snap-bbox="true">
    <inkscape:grid
       type="xygrid"
       id="grid815"
       originx="-10.230559"
       originy="-211.31391" />
  </sodipodi:namedview>
  <metadata
     id="metadata5">
    <rdf:RDF>
      <cc:Work
         rdf:about="">
        <dc:format>image/svg+xml</dc:format>
        <dc:type
           rdf:resource="http://purl.org/dc/dcmitype/StillImage" />
        <dc:title></dc:title>
      </cc:Work>
    </rdf:RDF>
  </metadata>
  <g
     inkscape:label="Layer 1"
     inkscape:groupmode="layer"
     id="layer1"
     transform="translate(-10.230555,-21.480554)">
    <rect
       style="opacity:1;fill:#ffdcdc;fill-opacity:1;fill-rule:evenodd;stroke:none;stroke-width:0.86412555;stroke-linecap:round;stroke-miterlimit:4;stroke-dasharray:none;stroke-dashoffset:0;stroke-opacity:1"
       id="rect2344"
       width="132.29167"
       height="63.5"
       x="10.583329"
       y="21.83337" />
    <rect
       style="opacity:1;fill:none;fill-opacity:1;fill-rule:evenodd;stroke:#000000;stroke-width:0.70555556;stroke-linecap:round;stroke-miterlimit:4;stroke-dasharray:none;stroke-dashoffset:0;stroke-opacity:1"
       id="rect817"
       width="132.29167"
       height="63.500019"
       x="10.583333"
       y="21.833332" />
    <path
       style="fill:none;fill-rule:evenodd;stroke:#000000;stroke-width:0.70555556;stroke-linecap:butt;stroke-linejoin:miter;stroke-miterlimit:4;stroke-dasharray:none;stroke-opacity:1"
       d="m 37.041667,21.833332 -3e-6,63.500018"
       id="path819"
       inkscape:connector-curvature="0"
       sodipodi:nodetypes="cc" />
    <path
       style="fill:none;fill-rule:evenodd;stroke:#000000;stroke-width:0.70555556;stroke-linecap:butt;stroke-linejoin:miter;stroke-miterlimit:4;stroke-dasharray:none;stroke-opacity:1"
       d="m 63.5,21.833332 -3e-6,63.500018"
       id="path821"
       inkscape:connector-curvature="0"
       sodipodi:nodetypes="cc" />
    <path
       style="fill:none;fill-rule:evenodd;stroke:#000000;stroke-width:0.70555556;stroke-linecap:butt;stroke-linejoin:miter;stroke-miterlimit:4;stroke-dasharray:none;stroke-opacity:1"
       d="m 89.958333,21.833332 -2e-6,63.500018"
       id="path823"
       inkscape:connector-curvature="0"
       sodipodi:nodetypes="cc" />
    <path
       style="fill:none;fill-rule:evenodd;stroke:#000000;stroke-width:0.70599997;stroke-linecap:butt;stroke-linejoin:miter;stroke-miterlimit:4;stroke-dasharray:none;stroke-opacity:1"
       d="m 116.41667,21.833333 -1e-5,63.500017"
       id="path827"
       inkscape:connector-curvature="0"
       sodipodi:nodetypes="cc" />
    <path
       style="fill:none;fill-rule:evenodd;stroke:#000000;stroke-width:0.70555556;stroke-linecap:butt;stroke-linejoin:miter;stroke-miterlimit:4;stroke-dasharray:none;stroke-opacity:1"
       d="M 10.583331,43.000006 142.875,43.000017"
       id="path1261"
       inkscape:connector-curvature="0"
       sodipodi:nodetypes="cc" />
    <path
       style="fill:none;fill-rule:evenodd;stroke:#000000;stroke-width:0.70555556;stroke-linecap:butt;stroke-linejoin:miter;stroke-miterlimit:4;stroke-dasharray:none;stroke-opacity:1"
       d="M 142.875,53.58335 10.583331,53.583338"
       id="path1263"
       inkscape:connector-curvature="0"
       sodipodi:nodetypes="cc" />
    <path
       style="fill:none;fill-rule:evenodd;stroke:#000000;stroke-width:0.70555556;stroke-linecap:butt;stroke-linejoin:miter;stroke-miterlimit:4;stroke-dasharray:none;stroke-opacity:1"
       d="M 10.583331,64.166672 142.875,64.166683"
       id="path1265"
       inkscape:connector-curvature="0"
       sodipodi:nodetypes="cc" />
    <path
       style="fill:none;fill-rule:evenodd;stroke:#000000;stroke-width:0.70555556;stroke-linecap:butt;stroke-linejoin:miter;stroke-miterlimit:4;stroke-dasharray:none;stroke-opacity:1"
       d="M 142.875,74.750017 10.583331,74.750005"
       id="path1267"
       inkscape:connector-curvature="0"
       sodipodi:nodetypes="cc" />
    <path
       inkscape:connector-curvature="0"
       id="path1271"
       d="M 10.583331,32.416683 H 142.875"
       style="fill:none;fill-rule:evenodd;stroke:#000000;stroke-width:0.70555556;stroke-linecap:butt;stroke-linejoin:miter;stroke-miterlimit:4;stroke-dasharray:none;stroke-opacity:1"
       sodipodi:nodetypes="cc" />
    <text
       xml:space="preserve"
       style="font-style:normal;font-weight:normal;font-size:7.9375px;line-height:125%;font-family:Sans;letter-spacing:0px;word-spacing:0px;fill:#000000;fill-opacity:1;stroke:none;stroke-width:0.26458332px;stroke-linecap:butt;stroke-linejoin:miter;stroke-opacity:1"
       x="21.587978"
       y="28.608082"
       id="text3511"><tspan
         sodipodi:role="line"
         id="tspan3509"
         x="21.587978"
         y="28.608082"
         style="font-size:4.93888903px;stroke-width:0.26458332px">0</tspan></text>
    <text
       id="text3515"
       y="28.550783"
       x="47.776707"
       style="font-style:normal;font-weight:normal;font-size:7.9375px;line-height:125%;font-family:Sans;letter-spacing:0px;word-spacing:0px;fill:#000000;fill-opacity:1;stroke:none;stroke-width:0.26458332px;stroke-linecap:butt;stroke-linejoin:miter;stroke-opacity:1"
       xml:space="preserve"><tspan
         style="font-size:4.93888903px;stroke-width:0.26458332px"
         y="28.550783"
         x="47.776707"
         id="tspan3513"
         sodipodi:role="line">0</tspan></text>
    <text
       xml:space="preserve"
       style="font-style:normal;font-weight:normal;font-size:7.9375px;line-height:125%;font-family:Sans;letter-spacing:0px;word-spacing:0px;fill:#000000;fill-opacity:1;stroke:none;stroke-width:0.26458332px;stroke-linecap:butt;stroke-linejoin:miter;stroke-opacity:1"
       x="74.437302"
       y="28.608082"
       id="text3519"><tspan
         sodipodi:role="line"
         id="tspan3517"
         x="74.437302"
         y="28.608082"
         style="font-size:4.93888903px;stroke-width:0.26458332px">0</tspan></text>
    <text
       id="text3523"
       y="28.608082"
       x="101.0979"
       style="font-style:normal;font-weight:normal;font-size:7.9375px;line-height:125%;font-family:Sans;letter-spacing:0px;word-spacing:0px;fill:#000000;fill-opacity:1;stroke:none;stroke-width:0.26458332px;stroke-linecap:butt;stroke-linejoin:miter;stroke-opacity:1"
       xml:space="preserve"><tspan
         style="font-size:4.93888903px;stroke-width:0.26458332px"
         y="28.608082"
         x="101.0979"
         id="tspan3521"
         sodipodi:role="line">0</tspan></text>
    <text
       xml:space="preserve"
       style="font-style:normal;font-weight:normal;font-size:7.9375px;line-height:125%;font-family:Sans;letter-spacing:0px;word-spacing:0px;fill:#000000;fill-opacity:1;stroke:none;stroke-width:0.26458332px;stroke-linecap:butt;stroke-linejoin:miter;stroke-opacity:1"
       x="127.7585"
       y="28.372147"
       id="text3527"><tspan
         sodipodi:role="line"
         id="tspan3525"
         x="127.7585"
         y="28.372147"
         style="font-size:4.93888903px;stroke-width:0.26458332px">0</tspan></text>
    <text
       id="text3531"
       y="39.225132"
       x="21.587978"
       style="font-style:normal;font-weight:normal;font-size:7.9375px;line-height:125%;font-family:Sans;letter-spacing:0px;word-spacing:0px;fill:#000000;fill-opacity:1;stroke:none;stroke-width:0.26458332px;stroke-linecap:butt;stroke-linejoin:miter;stroke-opacity:1"
       xml:space="preserve"><tspan
         style="font-size:4.93888903px;stroke-width:0.26458332px"
         y="39.225132"
         x="21.587978"
         id="tspan3529"
         sodipodi:role="line">0</tspan></text>
    <text
       xml:space="preserve"
       style="font-style:normal;font-weight:normal;font-size:7.9375px;line-height:125%;font-family:Sans;letter-spacing:0px;word-spacing:0px;fill:#000000;fill-opacity:1;stroke:none;stroke-width:0.26458332px;stroke-linecap:butt;stroke-linejoin:miter;stroke-opacity:1"
       x="47.776707"
       y="39.167835"
       id="text3535"><tspan
         sodipodi:role="line"
         id="tspan3533"
         x="47.776707"
         y="39.167835"
         style="font-size:4.93888903px;stroke-width:0.26458332px">0</tspan></text>
    <text
       id="text3539"
       y="39.225132"
       x="74.437302"
       style="font-style:normal;font-weight:normal;font-size:7.9375px;line-height:125%;font-family:Sans;letter-spacing:0px;word-spacing:0px;fill:#000000;fill-opacity:1;stroke:none;stroke-width:0.26458332px;stroke-linecap:butt;stroke-linejoin:miter;stroke-opacity:1"
       xml:space="preserve"><tspan
         style="font-size:4.93888903px;stroke-width:0.26458332px"
         y="39.225132"
         x="74.437302"
         id="tspan3537"
         sodipodi:role="line">0</tspan></text>
    <text
       xml:space="preserve"
       style="font-style:normal;font-weight:normal;font-size:7.9375px;line-height:125%;font-family:Sans;letter-spacing:0px;word-spacing:0px;fill:#000000;fill-opacity:1;stroke:none;stroke-width:0.26458332px;stroke-linecap:butt;stroke-linejoin:miter;stroke-opacity:1"
       x="101.0979"
       y="39.225132"
       id="text3543"><tspan
         sodipodi:role="line"
         id="tspan3541"
         x="101.0979"
         y="39.225132"
         style="font-size:4.93888903px;stroke-width:0.26458332px">0</tspan></text>
    <text
       id="text3547"
       y="38.989197"
       x="127.7585"
       style="font-style:normal;font-weight:normal;font-size:7.9375px;line-height:125%;font-family:Sans;letter-spacing:0px;word-spacing:0px;fill:#000000;fill-opacity:1;stroke:none;stroke-width:0.26458332px;stroke-linecap:butt;stroke-linejoin:miter;stroke-opacity:1"
       xml:space="preserve"><tspan
         style="font-size:4.93888903px;stroke-width:0.26458332px"
         y="38.989197"
         x="127.7585"
         id="tspan3545"
         sodipodi:role="line">0</tspan></text>
    <text
       xml:space="preserve"
       style="font-style:normal;font-weight:normal;font-size:7.9375px;line-height:125%;font-family:Sans;letter-spacing:0px;word-spacing:0px;fill:#000000;fill-opacity:1;stroke:none;stroke-width:0.26458332px;stroke-linecap:butt;stroke-linejoin:miter;stroke-opacity:1"
       x="21.587978"
       y="50.314053"
       id="text3551"><tspan
         sodipodi:role="line"
         id="tspan3549"
         x="21.587978"
         y="50.314053"
         style="font-size:4.93888903px;stroke-width:0.26458332px">0</tspan></text>
    <text
       id="text3555"
       y="50.256756"
       x="47.776707"
       style="font-style:normal;font-weight:normal;font-size:7.9375px;line-height:125%;font-family:Sans;letter-spacing:0px;word-spacing:0px;fill:#000000;fill-opacity:1;stroke:none;stroke-width:0.26458332px;stroke-linecap:butt;stroke-linejoin:miter;stroke-opacity:1"
       xml:space="preserve"><tspan
         style="font-size:4.93888903px;stroke-width:0.26458332px"
         y="50.256756"
         x="47.776707"
         id="tspan3553"
         sodipodi:role="line">4</tspan></text>
    <text
       xml:space="preserve"
       style="font-style:normal;font-weight:normal;font-size:7.9375px;line-height:125%;font-family:Sans;letter-spacing:0px;word-spacing:0px;fill:#000000;fill-opacity:1;stroke:none;stroke-width:0.26458332px;stroke-linecap:butt;stroke-linejoin:miter;stroke-opacity:1"
       x="74.437302"
       y="50.314053"
       id="text3559"><tspan
         sodipodi:role="line"
         id="tspan3557"
         x="74.437302"
         y="50.314053"
         style="font-size:4.93888903px;stroke-width:0.26458332px">4</tspan></text>
    <text
       id="text3563"
       y="50.314053"
       x="101.0979"
       style="font-style:normal;font-weight:normal;font-size:7.9375px;line-height:125%;font-family:Sans;letter-spacing:0px;word-spacing:0px;fill:#000000;fill-opacity:1;stroke:none;stroke-width:0.26458332px;stroke-linecap:butt;stroke-linejoin:miter;stroke-opacity:1"
       xml:space="preserve"><tspan
         style="font-size:4.93888903px;stroke-width:0.26458332px"
         y="50.314053"
         x="101.0979"
         id="tspan3561"
         sodipodi:role="line">4</tspan></text>
    <text
       xml:space="preserve"
       style="font-style:normal;font-weight:normal;font-size:7.9375px;line-height:125%;font-family:Sans;letter-spacing:0px;word-spacing:0px;fill:#000000;fill-opacity:1;stroke:none;stroke-width:0.26458332px;stroke-linecap:butt;stroke-linejoin:miter;stroke-opacity:1"
       x="127.7585"
       y="50.078117"
       id="text3567"><tspan
         sodipodi:role="line"
         id="tspan3565"
         x="127.7585"
         y="50.078117"
         style="font-size:4.93888903px;stroke-width:0.26458332px">4</tspan></text>
    <text
       id="text3571"
       y="60.695171"
       x="21.587978"
       style="font-style:normal;font-weight:normal;font-size:7.9375px;line-height:125%;font-family:Sans;letter-spacing:0px;word-spacing:0px;fill:#000000;fill-opacity:1;stroke:none;stroke-width:0.26458332px;stroke-linecap:butt;stroke-linejoin:miter;stroke-opacity:1"
       xml:space="preserve"><tspan
         style="font-size:4.93888903px;stroke-width:0.26458332px"
         y="60.695171"
         x="21.587978"
         id="tspan3569"
         sodipodi:role="line">0</tspan></text>
    <text
       xml:space="preserve"
       style="font-style:normal;font-weight:normal;font-size:7.9375px;line-height:125%;font-family:Sans;letter-spacing:0px;word-spacing:0px;fill:#000000;fill-opacity:1;stroke:none;stroke-width:0.26458332px;stroke-linecap:butt;stroke-linejoin:miter;stroke-opacity:1"
       x="47.776707"
       y="60.637875"
       id="text3575"><tspan
         sodipodi:role="line"
         id="tspan3573"
         x="47.776707"
         y="60.637875"
         style="font-size:4.93888903px;stroke-width:0.26458332px">4</tspan></text>
    <text
       id="text3579"
       y="60.695171"
       x="74.437302"
       style="font-style:normal;font-weight:normal;font-size:7.9375px;line-height:125%;font-family:Sans;letter-spacing:0px;word-spacing:0px;fill:#000000;fill-opacity:1;stroke:none;stroke-width:0.26458332px;stroke-linecap:butt;stroke-linejoin:miter;stroke-opacity:1"
       xml:space="preserve"><tspan
         style="font-size:4.93888903px;stroke-width:0.26458332px"
         y="60.695171"
         x="74.437302"
         id="tspan3577"
         sodipodi:role="line">5</tspan></text>
    <text
       xml:space="preserve"
       style="font-style:normal;font-weight:normal;font-size:7.9375px;line-height:125%;font-family:Sans;letter-spacing:0px;word-spacing:0px;fill:#000000;fill-opacity:1;stroke:none;stroke-width:0.26458332px;stroke-linecap:butt;stroke-linejoin:miter;stroke-opacity:1"
       x="101.0979"
       y="60.695171"
       id="text3583"><tspan
         sodipodi:role="line"
         id="tspan3581"
         x="101.0979"
         y="60.695171"
         style="font-size:4.93888903px;stroke-width:0.26458332px">5</tspan></text>
    <text
       id="text3587"
       y="60.459236"
       x="127.7585"
       style="font-style:normal;font-weight:normal;font-size:7.9375px;line-height:125%;font-family:Sans;letter-spacing:0px;word-spacing:0px;fill:#000000;fill-opacity:1;stroke:none;stroke-width:0.26458332px;stroke-linecap:butt;stroke-linejoin:miter;stroke-opacity:1"
       xml:space="preserve"><tspan
         style="font-size:4.93888903px;stroke-width:0.26458332px"
         y="60.459236"
         x="127.7585"
         id="tspan3585"
         sodipodi:role="line">5</tspan></text>
    <text
       xml:space="preserve"
       style="font-style:normal;font-weight:normal;font-size:7.9375px;line-height:125%;font-family:Sans;letter-spacing:0px;word-spacing:0px;fill:#000000;fill-opacity:1;stroke:none;stroke-width:0.26458332px;stroke-linecap:butt;stroke-linejoin:miter;stroke-opacity:1"
       x="21.352043"
       y="71.076286"
       id="text3591"><tspan
         sodipodi:role="line"
         id="tspan3589"
         x="21.352043"
         y="71.076286"
         style="font-size:4.93888903px;stroke-width:0.26458332px">0</tspan></text>
    <text
       id="text3595"
       y="71.01899"
       x="47.540771"
       style="font-style:normal;font-weight:normal;font-size:7.9375px;line-height:125%;font-family:Sans;letter-spacing:0px;word-spacing:0px;fill:#000000;fill-opacity:1;stroke:none;stroke-width:0.26458332px;stroke-linecap:butt;stroke-linejoin:miter;stroke-opacity:1"
       xml:space="preserve"><tspan
         style="font-size:4.93888903px;stroke-width:0.26458332px"
         y="71.01899"
         x="47.540771"
         id="tspan3593"
         sodipodi:role="line">4</tspan></text>
    <text
       xml:space="preserve"
       style="font-style:normal;font-weight:normal;font-size:7.9375px;line-height:125%;font-family:Sans;letter-spacing:0px;word-spacing:0px;fill:#000000;fill-opacity:1;stroke:none;stroke-width:0.26458332px;stroke-linecap:butt;stroke-linejoin:miter;stroke-opacity:1"
       x="74.20137"
       y="71.076286"
       id="text3599"><tspan
         sodipodi:role="line"
         id="tspan3597"
         x="74.20137"
         y="71.076286"
         style="font-size:4.93888903px;stroke-width:0.26458332px">8</tspan></text>
    <text
       id="text3603"
       y="71.076286"
       x="100.86197"
       style="font-style:normal;font-weight:normal;font-size:7.9375px;line-height:125%;font-family:Sans;letter-spacing:0px;word-spacing:0px;fill:#000000;fill-opacity:1;stroke:none;stroke-width:0.26458332px;stroke-linecap:butt;stroke-linejoin:miter;stroke-opacity:1"
       xml:space="preserve"><tspan
         style="font-size:4.93888903px;stroke-width:0.26458332px"
         y="71.076286"
         x="100.86197"
         id="tspan3601"
         sodipodi:role="line">8</tspan></text>
    <text
       xml:space="preserve"
       style="font-style:normal;font-weight:normal;font-size:7.9375px;line-height:125%;font-family:Sans;letter-spacing:0px;word-spacing:0px;fill:#000000;fill-opacity:1;stroke:none;stroke-width:0.26458332px;stroke-linecap:butt;stroke-linejoin:miter;stroke-opacity:1"
       x="127.52257"
       y="70.840355"
       id="text3607"><tspan
         sodipodi:role="line"
         id="tspan3605"
         x="127.52257"
         y="70.840355"
         style="font-size:4.93888903px;stroke-width:0.26458332px">8</tspan></text>
    <text
       id="text3611"
       y="81.457405"
       x="21.352043"
       style="font-style:normal;font-weight:normal;font-size:7.9375px;line-height:125%;font-family:Sans;letter-spacing:0px;word-spacing:0px;fill:#000000;fill-opacity:1;stroke:none;stroke-width:0.26458332px;stroke-linecap:butt;stroke-linejoin:miter;stroke-opacity:1"
       xml:space="preserve"><tspan
         style="font-size:4.93888903px;stroke-width:0.26458332px"
         y="81.457405"
         x="21.352043"
         id="tspan3609"
         sodipodi:role="line">0</tspan></text>
    <text
       xml:space="preserve"
       style="font-style:normal;font-weight:normal;font-size:7.9375px;line-height:125%;font-family:Sans;letter-spacing:0px;word-spacing:0px;fill:#000000;fill-opacity:1;stroke:none;stroke-width:0.26458332px;stroke-linecap:butt;stroke-linejoin:miter;stroke-opacity:1"
       x="47.540771"
       y="81.400108"
       id="text3615"><tspan
         sodipodi:role="line"
         id="tspan3613"
         x="47.540771"
         y="81.400108"
         style="font-size:4.93888903px;stroke-width:0.26458332px">4</tspan></text>
    <text
       id="text3619"
       y="81.457405"
       x="74.20137"
       style="font-style:normal;font-weight:normal;font-size:7.9375px;line-height:125%;font-family:Sans;letter-spacing:0px;word-spacing:0px;fill:#000000;fill-opacity:1;stroke:none;stroke-width:0.26458332px;stroke-linecap:butt;stroke-linejoin:miter;stroke-opacity:1"
       xml:space="preserve"><tspan
         style="font-size:4.93888903px;stroke-width:0.26458332px"
         y="81.457405"
         x="74.20137"
         id="tspan3617"
         sodipodi:role="line">8</tspan></text>
    <text
       xml:space="preserve"
       style="font-style:normal;font-weight:normal;font-size:7.9375px;line-height:125%;font-family:Sans;letter-spacing:0px;word-spacing:0px;fill:#000000;fill-opacity:1;stroke:none;stroke-width:0.26458332px;stroke-linecap:butt;stroke-linejoin:miter;stroke-opacity:1"
       x="100.86197"
       y="81.457405"
       id="text3623"><tspan
         sodipodi:role="line"
         id="tspan3621"
         x="100.86197"
         y="81.457405"
         style="font-size:4.93888903px;stroke-width:0.26458332px">9</tspan></text>
    <text
       id="text3627"
       y="81.221474"
       x="127.52257"
       style="font-style:normal;font-weight:normal;font-size:7.9375px;line-height:125%;font-family:Sans;letter-spacing:0px;word-spacing:0px;fill:#000000;fill-opacity:1;stroke:none;stroke-width:0.26458332px;stroke-linecap:butt;stroke-linejoin:miter;stroke-opacity:1"
       xml:space="preserve"><tspan
         style="font-size:4.93888903px;stroke-width:0.26458332px"
         y="81.221474"
         x="127.52257"
         id="tspan3625"
         sodipodi:role="line">9</tspan></text>
  </g>
</svg>
